{
  "project_info": {
    "project_number": "735265482233",
    "project_id": "gameroll-167e3",
    "storage_bucket": "gameroll-167e3.appspot.com"
  },
  "client": [
    {
      "client_info": {
        "mobilesdk_app_id": "1:735265482233:android:0fc79c3d7c3b6a8f910928",
        "android_client_info": {
          "package_name": "com.google.firebase.test"
        }
      },
      "oauth_client": [
        {
          "client_id": "735265482233-1a3pdme6okthvhufovfr8c0ld0cu2mru.apps.googleusercontent.com",
          "client_type": 3
        }
      ],
      "api_key": [
        {
          "current_key": "AIzaSyDNMM9dxQL2oyVD6WZBmeXrpBexGa_pc6Y"
        }
      ],
      "services": {
        "appinvite_service": {
          "other_platform_oauth_client": [
            {
              "client_id": "735265482233-1a3pdme6okthvhufovfr8c0ld0cu2mru.apps.googleusercontent.com",
              "client_type": 3
            }
          ]
        }
      }
    }
  ],
  "configuration_version": "1"
}